WiWi BrushUp Kurs 2022
…
Schritt 1: Wir nehmen einfach die Daten…

Schritt 2: … und schieben sie wo anders hin.

Aufgaben

In diesem Tutorial wollen wir uns den ames Datensatz aus dem modeldata Package angucken. Dabei werden uns die Packages tidyverse und janitor unterstützen.

library(tidyverse)
library(janitor)
data(ames, package = 'modeldata')
ames

# A tibble: 2,930 x 74
   MS_SubClass            MS_Zoning Lot_Frontage Lot_Area Street Alley Lot_Shape
 * <fct>                  <fct>            <dbl>    <int> <fct>  <fct> <fct>    
 1 One_Story_1946_and_Ne~ Resident~          141    31770 Pave   No_A~ Slightly~
 2 One_Story_1946_and_Ne~ Resident~           80    11622 Pave   No_A~ Regular  
 3 One_Story_1946_and_Ne~ Resident~           81    14267 Pave   No_A~ Slightly~
 4 One_Story_1946_and_Ne~ Resident~           93    11160 Pave   No_A~ Regular  
 5 Two_Story_1946_and_Ne~ Resident~           74    13830 Pave   No_A~ Slightly~
 6 Two_Story_1946_and_Ne~ Resident~           78     9978 Pave   No_A~ Slightly~
 7 One_Story_PUD_1946_an~ Resident~           41     4920 Pave   No_A~ Regular  
 8 One_Story_PUD_1946_an~ Resident~           43     5005 Pave   No_A~ Slightly~
 9 One_Story_PUD_1946_an~ Resident~           39     5389 Pave   No_A~ Slightly~
10 Two_Story_1946_and_Ne~ Resident~           60     7500 Pave   No_A~ Regular  
# ... with 2,920 more rows, and 67 more variables: Land_Contour <fct>,
#   Utilities <fct>, Lot_Config <fct>, Land_Slope <fct>, Neighborhood <fct>,
#   Condition_1 <fct>, Condition_2 <fct>, Bldg_Type <fct>, House_Style <fct>,
#   Overall_Cond <fct>, Year_Built <int>, Year_Remod_Add <int>,
#   Roof_Style <fct>, Roof_Matl <fct>, Exterior_1st <fct>, Exterior_2nd <fct>,
#   Mas_Vnr_Type <fct>, Mas_Vnr_Area <dbl>, Exter_Cond <fct>, Foundation <fct>,
#   Bsmt_Cond <fct>, Bsmt_Exposure <fct>, BsmtFin_Type_1 <fct>, ...

Wir sehen, dass dieser Datensatz ganz schön viele Variablen (Spalten) hat. Eine genaue Beschreibung aller Variablen findet sich online. Machen wir uns als Erstes das Leben leichter und formatieren die Namen, sodass wir bei Zugriff auf Daten nicht immer Groß- und Kleinschreibung beachten müssen. Das klingt erstmal sehr banal. Aber Typos passieren oft genug. Wir brauchen das nicht provozieren.

ames_gute_namen <- clean_names(ames)
ames_gute_namen

# A tibble: 2,930 x 74
   ms_sub_class           ms_zoning lot_frontage lot_area street alley lot_shape
 * <fct>                  <fct>            <dbl>    <int> <fct>  <fct> <fct>    
 1 One_Story_1946_and_Ne~ Resident~          141    31770 Pave   No_A~ Slightly~
 2 One_Story_1946_and_Ne~ Resident~           80    11622 Pave   No_A~ Regular  
 3 One_Story_1946_and_Ne~ Resident~           81    14267 Pave   No_A~ Slightly~
 4 One_Story_1946_and_Ne~ Resident~           93    11160 Pave   No_A~ Regular  
 5 Two_Story_1946_and_Ne~ Resident~           74    13830 Pave   No_A~ Slightly~
 6 Two_Story_1946_and_Ne~ Resident~           78     9978 Pave   No_A~ Slightly~
 7 One_Story_PUD_1946_an~ Resident~           41     4920 Pave   No_A~ Regular  
 8 One_Story_PUD_1946_an~ Resident~           43     5005 Pave   No_A~ Slightly~
 9 One_Story_PUD_1946_an~ Resident~           39     5389 Pave   No_A~ Slightly~
10 Two_Story_1946_and_Ne~ Resident~           60     7500 Pave   No_A~ Regular  
# ... with 2,920 more rows, and 67 more variables: land_contour <fct>,
#   utilities <fct>, lot_config <fct>, land_slope <fct>, neighborhood <fct>,
#   condition_1 <fct>, condition_2 <fct>, bldg_type <fct>, house_style <fct>,
#   overall_cond <fct>, year_built <int>, year_remod_add <int>,
#   roof_style <fct>, roof_matl <fct>, exterior_1st <fct>, exterior_2nd <fct>,
#   mas_vnr_type <fct>, mas_vnr_area <dbl>, exter_cond <fct>, foundation <fct>,
#   bsmt_cond <fct>, bsmt_exposure <fct>, bsmt_fin_type_1 <fct>, ...

Wir brauchen nicht alle 74 Variablen gleichzeitig angucken. Wählen wir erstmal ein paar einfache Variablen aus. Dafür liefert uns das tidyverse die Funktion select(). Benutze diese Funktion, um von ames_gute_namen die Spalten sale_price, lot_area, ms_zoning und neighborhood zu extrahieren und in einer Variable ames_teil zu speichern.

Das sollte dann so aussehen.

ames_teil

# A tibble: 2,930 x 4
   sale_price lot_area ms_zoning                neighborhood
        <int>    <int> <fct>                    <fct>       
 1     215000    31770 Residential_Low_Density  North_Ames  
 2     105000    11622 Residential_High_Density North_Ames  
 3     172000    14267 Residential_Low_Density  North_Ames  
 4     244000    11160 Residential_Low_Density  North_Ames  
 5     189900    13830 Residential_Low_Density  Gilbert     
 6     195500     9978 Residential_Low_Density  Gilbert     
 7     213500     4920 Residential_Low_Density  Stone_Brook 
 8     191500     5005 Residential_Low_Density  Stone_Brook 
 9     236500     5389 Residential_Low_Density  Stone_Brook 
10     189000     7500 Residential_Low_Density  Gilbert     
# ... with 2,920 more rows
…
Sind die größten Grundstücke die teuersten?

Bestimme einen tibble largest_25, der die 25 größten Grundstücke beinhaltet. Dieser Datensatz sieht ungefähr so aus.

# A tibble: 25 x 4
   sale_price lot_area ms_zoning               neighborhood          
        <int>    <int> <fct>                   <fct>                 
 1     375000   215245 Residential_Low_Density Timberland            
 2     228950   164660 Residential_Low_Density Timberland            
 3     277000   159000 Residential_Low_Density Clear_Creek           
 4     302000   115149 Residential_Low_Density Clear_Creek           
 5     280000    70761 Residential_Low_Density Clear_Creek           
 6     160000    63887 Residential_Low_Density Edwards               
 7     160000    57200 Residential_Low_Density Timberland            
 8     103000    56600 I_all                   Iowa_DOT_and_Rail_Road
 9     538000    53504 Residential_Low_Density Stone_Brook           
10     256000    53227 Residential_Low_Density Clear_Creek           
# ... with 15 more rows
…
Markiere die teuersten Häuser jeder Nachbarschaft

Extrahiere nun einen Datensatz neighborhood_max3, der die 3 teuesten Häuser für jede Nachbarschaft enthält. Also so aussieht.

# A tibble: 84 x 4
   sale_price lot_area ms_zoning                  neighborhood 
        <int>    <int> <fct>                      <fct>        
 1     345000    13860 Residential_Low_Density    North_Ames   
 2     301600    21281 Residential_Low_Density    North_Ames   
 3     277500    18275 Residential_Low_Density    North_Ames   
 4     475000    11778 Residential_Low_Density    College_Creek
 5     424870     9965 Residential_Low_Density    College_Creek
 6     395039    11778 Residential_Low_Density    College_Creek
 7     475000    22950 Residential_Medium_Density Old_Town     
 8     325000    13500 Residential_Medium_Density Old_Town     
 9     295000    18386 Residential_Medium_Density Old_Town     
10     415000    19800 Residential_Low_Density    Edwards      
# ... with 74 more rows
…
