WiWi BrushUp Kurs 2022
…
Attaching package: 'janitor'

The following objects are masked from 'package:stats':

    chisq.test, fisher.test

data(ames, package = 'modeldata')

Beschreibung für Datensatz hier

Ein Blick in den Datensatz

ames # Ausführen für Ausgabe

# A tibble: 2,930 x 74
   MS_SubClass            MS_Zoning Lot_Frontage Lot_Area Street Alley Lot_Shape
 * <fct>                  <fct>            <dbl>    <int> <fct>  <fct> <fct>    
 1 One_Story_1946_and_Ne~ Resident~          141    31770 Pave   No_A~ Slightly~
 2 One_Story_1946_and_Ne~ Resident~           80    11622 Pave   No_A~ Regular  
 3 One_Story_1946_and_Ne~ Resident~           81    14267 Pave   No_A~ Slightly~
 4 One_Story_1946_and_Ne~ Resident~           93    11160 Pave   No_A~ Regular  
 5 Two_Story_1946_and_Ne~ Resident~           74    13830 Pave   No_A~ Slightly~
 6 Two_Story_1946_and_Ne~ Resident~           78     9978 Pave   No_A~ Slightly~
 7 One_Story_PUD_1946_an~ Resident~           41     4920 Pave   No_A~ Regular  
 8 One_Story_PUD_1946_an~ Resident~           43     5005 Pave   No_A~ Slightly~
 9 One_Story_PUD_1946_an~ Resident~           39     5389 Pave   No_A~ Slightly~
10 Two_Story_1946_and_Ne~ Resident~           60     7500 Pave   No_A~ Regular  
# ... with 2,920 more rows, and 67 more variables: Land_Contour <fct>,
#   Utilities <fct>, Lot_Config <fct>, Land_Slope <fct>, Neighborhood <fct>,
#   Condition_1 <fct>, Condition_2 <fct>, Bldg_Type <fct>, House_Style <fct>,
#   Overall_Cond <fct>, Year_Built <int>, Year_Remod_Add <int>,
#   Roof_Style <fct>, Roof_Matl <fct>, Exterior_1st <fct>, Exterior_2nd <fct>,
#   Mas_Vnr_Type <fct>, Mas_Vnr_Area <dbl>, Exter_Cond <fct>, Foundation <fct>,
#   Bsmt_Cond <fct>, Bsmt_Exposure <fct>, BsmtFin_Type_1 <fct>, ...

Viele Variablen (Spalten) und viele Beobachtungen (Zeilen). Machen wir uns zunächst das Leben einfacher und machen alle Spaltennamen zu Kleinbuchstaben.

ames_gute_namen <- clean_names(ames)
ames_gute_namen

# A tibble: 2,930 x 74
   ms_sub_class           ms_zoning lot_frontage lot_area street alley lot_shape
 * <fct>                  <fct>            <dbl>    <int> <fct>  <fct> <fct>    
 1 One_Story_1946_and_Ne~ Resident~          141    31770 Pave   No_A~ Slightly~
 2 One_Story_1946_and_Ne~ Resident~           80    11622 Pave   No_A~ Regular  
 3 One_Story_1946_and_Ne~ Resident~           81    14267 Pave   No_A~ Slightly~
 4 One_Story_1946_and_Ne~ Resident~           93    11160 Pave   No_A~ Regular  
 5 Two_Story_1946_and_Ne~ Resident~           74    13830 Pave   No_A~ Slightly~
 6 Two_Story_1946_and_Ne~ Resident~           78     9978 Pave   No_A~ Slightly~
 7 One_Story_PUD_1946_an~ Resident~           41     4920 Pave   No_A~ Regular  
 8 One_Story_PUD_1946_an~ Resident~           43     5005 Pave   No_A~ Slightly~
 9 One_Story_PUD_1946_an~ Resident~           39     5389 Pave   No_A~ Slightly~
10 Two_Story_1946_and_Ne~ Resident~           60     7500 Pave   No_A~ Regular  
# ... with 2,920 more rows, and 67 more variables: land_contour <fct>,
#   utilities <fct>, lot_config <fct>, land_slope <fct>, neighborhood <fct>,
#   condition_1 <fct>, condition_2 <fct>, bldg_type <fct>, house_style <fct>,
#   overall_cond <fct>, year_built <int>, year_remod_add <int>,
#   roof_style <fct>, roof_matl <fct>, exterior_1st <fct>, exterior_2nd <fct>,
#   mas_vnr_type <fct>, mas_vnr_area <dbl>, exter_cond <fct>, foundation <fct>,
#   bsmt_cond <fct>, bsmt_exposure <fct>, bsmt_fin_type_1 <fct>, ...

Beschränken wir uns auf drei Variablen mit select().

ames_teil <- select(ames_gute_namen, sale_price, lot_area, ms_zoning, neighborhood)
ames_teil

# A tibble: 2,930 x 4
   sale_price lot_area ms_zoning                neighborhood
        <int>    <int> <fct>                    <fct>       
 1     215000    31770 Residential_Low_Density  North_Ames  
 2     105000    11622 Residential_High_Density North_Ames  
 3     172000    14267 Residential_Low_Density  North_Ames  
 4     244000    11160 Residential_Low_Density  North_Ames  
 5     189900    13830 Residential_Low_Density  Gilbert     
 6     195500     9978 Residential_Low_Density  Gilbert     
 7     213500     4920 Residential_Low_Density  Stone_Brook 
 8     191500     5005 Residential_Low_Density  Stone_Brook 
 9     236500     5389 Residential_Low_Density  Stone_Brook 
10     189000     7500 Residential_Low_Density  Gilbert     
# ... with 2,920 more rows
…
slice(ames_teil, 1:50)$sale_price

 [1] 215000 105000 172000 244000 189900 195500 213500 191500 236500 189000
[11] 175900 185000 180400 171500 212000 538000 164000 394432 141000 210000
[21] 190000 170000 216000 149000 149900 142000 126000 115000 184000  96000
[31] 105500  88000 127500 149900 120000 146000 376162 306000 395192 290941
[41] 220000 275000 259000 214000 611657 224000 500000 320000 319900 205000

Erklärung hier Für tibbles funktioniert das Ganze mit Zeilen und Spalten

# Spaltennummer geht auch aber ist nicht so verständlich, weil kein Mensch
# die Spaltennummern auswendig im Kopf hat
ames_teil[1:50, 'sale_price']

# A tibble: 50 x 1
   sale_price
        <int>
 1     215000
 2     105000
 3     172000
 4     244000
 5     189900
 6     195500
 7     213500
 8     191500
 9     236500
10     189000
# ... with 40 more rows

Du erkennst an der Ausgabe, dass wir einen Tibble haben. Das heißt wir hätten auch mit dieser Schreibweise select() umgehen können.

# Leeres Zeilenargument für "alle Zeilen"
ames_teil <- ames_gute_namen[ , c('sale_price', 'lot_area', 'ms_zoning', 'neighborhood')]
ames_teil

# A tibble: 2,930 x 4
   sale_price lot_area ms_zoning                neighborhood
        <int>    <int> <fct>                    <fct>       
 1     215000    31770 Residential_Low_Density  North_Ames  
 2     105000    11622 Residential_High_Density North_Ames  
 3     172000    14267 Residential_Low_Density  North_Ames  
 4     244000    11160 Residential_Low_Density  North_Ames  
 5     189900    13830 Residential_Low_Density  Gilbert     
 6     195500     9978 Residential_Low_Density  Gilbert     
 7     213500     4920 Residential_Low_Density  Stone_Brook 
 8     191500     5005 Residential_Low_Density  Stone_Brook 
 9     236500     5389 Residential_Low_Density  Stone_Brook 
10     189000     7500 Residential_Low_Density  Gilbert     
# ... with 2,920 more rows
…
ames_grouped <- group_by(ames_teil, neighborhood)
neighborhood_max3 <- slice_max(ames_grouped, order_by = sale_price, n = 3)

Gucken wir mal in die Dokumentation von slice_max() und group_by().

slice_max(.data, order_by, ..., n, prop, with_ties = TRUE)
group_by(.data, ..., .add = FALSE, .drop = group_by_drop_default(.data))

Nutze, dass data Argument immer am Anfang durch Pipen.

ames_teil %>% 
  group_by(neighborhood) %>% 
  slice_max(order_by = sale_price, n = 3)

# A tibble: 84 x 4
# Groups:   neighborhood [28]
   sale_price lot_area ms_zoning                  neighborhood 
        <int>    <int> <fct>                      <fct>        
 1     345000    13860 Residential_Low_Density    North_Ames   
 2     301600    21281 Residential_Low_Density    North_Ames   
 3     277500    18275 Residential_Low_Density    North_Ames   
 4     475000    11778 Residential_Low_Density    College_Creek
 5     424870     9965 Residential_Low_Density    College_Creek
 6     395039    11778 Residential_Low_Density    College_Creek
 7     475000    22950 Residential_Medium_Density Old_Town     
 8     325000    13500 Residential_Medium_Density Old_Town     
 9     295000    18386 Residential_Medium_Density Old_Town     
10     415000    19800 Residential_Low_Density    Edwards      
# ... with 74 more rows

Wir können uns leicht vorstellen, dass das bei noch mehr Schritten übersichtlicher als Schachteln ist und weniger mühsam als Zwischenschritte, die uns eh nicht interessieren, abzuspeichern.

Block 2 - Filtern

Wir kennen ja bereits filter().

Lernen wir ein paar neue Bedingungen

ames_teil %>% 
  filter(sale_price >= 100000)

# A tibble: 2,693 x 4
   sale_price lot_area ms_zoning                neighborhood
        <int>    <int> <fct>                    <fct>       
 1     215000    31770 Residential_Low_Density  North_Ames  
 2     105000    11622 Residential_High_Density North_Ames  
 3     172000    14267 Residential_Low_Density  North_Ames  
 4     244000    11160 Residential_Low_Density  North_Ames  
 5     189900    13830 Residential_Low_Density  Gilbert     
 6     195500     9978 Residential_Low_Density  Gilbert     
 7     213500     4920 Residential_Low_Density  Stone_Brook 
 8     191500     5005 Residential_Low_Density  Stone_Brook 
 9     236500     5389 Residential_Low_Density  Stone_Brook 
10     189000     7500 Residential_Low_Density  Gilbert     
# ... with 2,683 more rows

ames_teil %>% 
  filter(sale_price >= 100000, sale_price <= 200000)

# A tibble: 1,836 x 4
   sale_price lot_area ms_zoning                neighborhood
        <int>    <int> <fct>                    <fct>       
 1     105000    11622 Residential_High_Density North_Ames  
 2     172000    14267 Residential_Low_Density  North_Ames  
 3     189900    13830 Residential_Low_Density  Gilbert     
 4     195500     9978 Residential_Low_Density  Gilbert     
 5     191500     5005 Residential_Low_Density  Stone_Brook 
 6     189000     7500 Residential_Low_Density  Gilbert     
 7     175900    10000 Residential_Low_Density  Gilbert     
 8     185000     7980 Residential_Low_Density  Gilbert     
 9     180400     8402 Residential_Low_Density  Gilbert     
10     171500    10176 Residential_Low_Density  Gilbert     
# ... with 1,826 more rows

# Shortcut für vorherigen
ames_teil %>% 
  filter(between(sale_price, 100000, 200000))

# A tibble: 1,836 x 4
   sale_price lot_area ms_zoning                neighborhood
        <int>    <int> <fct>                    <fct>       
 1     105000    11622 Residential_High_Density North_Ames  
 2     172000    14267 Residential_Low_Density  North_Ames  
 3     189900    13830 Residential_Low_Density  Gilbert     
 4     195500     9978 Residential_Low_Density  Gilbert     
 5     191500     5005 Residential_Low_Density  Stone_Brook 
 6     189000     7500 Residential_Low_Density  Gilbert     
 7     175900    10000 Residential_Low_Density  Gilbert     
 8     185000     7980 Residential_Low_Density  Gilbert     
 9     180400     8402 Residential_Low_Density  Gilbert     
10     171500    10176 Residential_Low_Density  Gilbert     
# ... with 1,826 more rows

# Negation mit !
ames_teil %>% 
  filter(!between(sale_price, 100000, 200000))

# A tibble: 1,094 x 4
   sale_price lot_area ms_zoning                    neighborhood  
        <int>    <int> <fct>                        <fct>         
 1     215000    31770 Residential_Low_Density      North_Ames    
 2     244000    11160 Residential_Low_Density      North_Ames    
 3     213500     4920 Residential_Low_Density      Stone_Brook   
 4     236500     5389 Residential_Low_Density      Stone_Brook   
 5     212000     6820 Residential_Low_Density      Stone_Brook   
 6     538000    53504 Residential_Low_Density      Stone_Brook   
 7     394432    11394 Residential_Low_Density      Stone_Brook   
 8     210000    13175 Residential_Low_Density      Northwest_Ames
 9     216000     7500 Floating_Village_Residential Somerset      
10      96000     1680 Residential_Medium_Density   Briardale     
# ... with 1,084 more rows

ames_teil %>% 
  filter(neighborhood %in% c('North_Ames', 'Gilbert', 'Stone_Brook'))

# A tibble: 659 x 4
   sale_price lot_area ms_zoning                neighborhood
        <int>    <int> <fct>                    <fct>       
 1     215000    31770 Residential_Low_Density  North_Ames  
 2     105000    11622 Residential_High_Density North_Ames  
 3     172000    14267 Residential_Low_Density  North_Ames  
 4     244000    11160 Residential_Low_Density  North_Ames  
 5     189900    13830 Residential_Low_Density  Gilbert     
 6     195500     9978 Residential_Low_Density  Gilbert     
 7     213500     4920 Residential_Low_Density  Stone_Brook 
 8     191500     5005 Residential_Low_Density  Stone_Brook 
 9     236500     5389 Residential_Low_Density  Stone_Brook 
10     189000     7500 Residential_Low_Density  Gilbert     
# ... with 649 more rows
…
Das gleiche geht auch bezogen auf Nachbarschaften.

ames_by_neighborhood <- ames_teil %>% 
  group_by(neighborhood) %>% 
  summarise(
    durchschnitt = mean(sale_price),
    median = median(sale_price),
    varianz = var(sale_price),
    std_abw = sd(sale_price),
    n = n()
  )
ames_by_neighborhood

# A tibble: 28 x 6
   neighborhood       durchschnitt median     varianz std_abw     n
   <fct>                     <dbl>  <dbl>       <dbl>   <dbl> <int>
 1 North_Ames              145097. 140000 1016507020.  31883.   443
 2 College_Creek           201803. 200000 2936322410.  54188.   267
 3 Old_Town                123992. 119900 1964892189.  44327.   239
 4 Edwards                 130843. 125000 2306919809.  48030.   194
 5 Somerset                229707. 225500 3299054067.  57437.   182
 6 Northridge_Heights      322018. 317750 9203016597.  95932.   166
 7 Gilbert                 190647. 183000 1092304460.  33050.   165
 8 Sawyer                  136751. 135000  535004257.  23130.   151
 9 Northwest_Ames          188407. 181000 1420368952.  37688.   131
10 Sawyer_West             184070. 180000 2400559345.  48996.   125
# ... with 18 more rows

In diesem Fall wäre eine Sortierung vielleicht ganz praktisch.

# Aufsteigend
ames_by_neighborhood %>% 
  arrange(median)

# A tibble: 28 x 6
   neighborhood                        durchschnitt median varianz std_abw     n
   <fct>                                      <dbl>  <dbl>   <dbl>   <dbl> <int>
 1 Meadow_Village                            95756.  88250  4.05e8  20131.    37
 2 Briardale                                105608. 106000  1.47e8  12145.    30
 3 Iowa_DOT_and_Rail_Road                   103753. 106500  1.33e9  36494.    93
 4 Old_Town                                 123992. 119900  1.96e9  44327.   239
 5 Edwards                                  130843. 125000  2.31e9  48030.   194
 6 Brookside                                124756. 126750  1.28e9  35741.   108
 7 Blueste                                  143590  130500  9.10e8  30159.    10
 8 Sawyer                                   136751. 135000  5.35e8  23130.   151
 9 South_and_West_of_Iowa_State_Unive~      135072. 136200  9.43e8  30707.    48
10 Landmark                                 137000  137000 NA          NA      1
# ... with 18 more rows

# Absteigend
ames_by_neighborhood %>% 
  arrange(desc(median))

# A tibble: 28 x 6
   neighborhood       durchschnitt  median      varianz std_abw     n
   <fct>                     <dbl>   <dbl>        <dbl>   <dbl> <int>
 1 Stone_Brook             324229. 319000  14226053465. 119273.    51
 2 Northridge_Heights      322018. 317750   9203016597.  95932.   166
 3 Northridge              330319. 302000  10291019636. 101445.    71
 4 Green_Hills             280000  280000   5000000000   70711.     2
 5 Veenker                 248315. 250250   4286969017.  65475.    24
 6 Timberland              246600. 232106.  4806159657.  69326.    72
 7 Somerset                229707. 225500   3299054067.  57437.   182
 8 Crawford                207551. 200624   4254976811.  65230.   103
 9 College_Creek           201803. 200000   2936322410.  54188.   267
10 Greens                  193531. 198000    483936384.  21999.     8
# ... with 18 more rows

Zusammenfassungen funktionieren auch für viele Variablen

ames_gute_namen %>% 
  group_by(overall_cond, ms_zoning) %>% 
  summarise(
    median = median(sale_price),
    .groups = 'drop'
  ) %>% 
  arrange(desc(median))

# A tibble: 38 x 3
   overall_cond  ms_zoning                     median
   <fct>         <fct>                          <dbl>
 1 Above_Average Floating_Village_Residential 216912.
 2 Average       Floating_Village_Residential 209000 
 3 Average       Residential_Low_Density      190000 
 4 Excellent     Residential_Low_Density      184000 
 5 Good          Residential_High_Density     157450 
 6 Average       Residential_High_Density     155000 
 7 Very_Good     Residential_High_Density     150000 
 8 Excellent     Residential_Medium_Density   150000 
 9 Above_Average Residential_Low_Density      149950 
10 Very_Good     Residential_Low_Density      149500 
# ... with 28 more rows
…
Aber wir machen wir das? Die Spalten Einkommen und Anzahl existiert in dem Datensatz gar nicht. Und das was eigentlich in diesen Spalte stehen sollte, damit wir es in ggplot2 mappen können, ist entweder über die ganze Tabelle verstreut oder in den Spaltennamen drin. Wir müssen also die Daten umsortieren. Dies geht mit pivot_longer() und sieht so aus.

relig_income %>% 
  pivot_longer(
    cols = -religion,
    names_to = 'Einkommen',
    values_to = 'Anzahl'
  )

# A tibble: 180 x 3
   religion Einkommen          Anzahl
   <chr>    <chr>               <dbl>
 1 Agnostic <$10k                  27
 2 Agnostic $10-20k                34
 3 Agnostic $20-30k                60
 4 Agnostic $30-40k                81
 5 Agnostic $40-50k                76
 6 Agnostic $50-75k               137
 7 Agnostic $75-100k              122
 8 Agnostic $100-150k             109
 9 Agnostic >150k                  84
10 Agnostic Don't know/refused     96
# ... with 170 more rows
…
