WiWi BrushUp Kurs 2022
…
Dazu betrachten wir erneut unseren Datensatz ames_teil.

library(tidyverse)
library(janitor)
data(ames, package = 'modeldata')
ames_teil <- ames %>% 
  clean_names() %>% 
  select(sale_price, lot_area, ms_zoning, neighborhood)

Einfache Bedingungen kennen wir ja bereits

ames_teil %>% 
  filter(sale_price >= 100000)

# A tibble: 2,693 x 4
   sale_price lot_area ms_zoning                neighborhood
        <int>    <int> <fct>                    <fct>       
 1     215000    31770 Residential_Low_Density  North_Ames  
 2     105000    11622 Residential_High_Density North_Ames  
 3     172000    14267 Residential_Low_Density  North_Ames  
 4     244000    11160 Residential_Low_Density  North_Ames  
 5     189900    13830 Residential_Low_Density  Gilbert     
 6     195500     9978 Residential_Low_Density  Gilbert     
 7     213500     4920 Residential_Low_Density  Stone_Brook 
 8     191500     5005 Residential_Low_Density  Stone_Brook 
 9     236500     5389 Residential_Low_Density  Stone_Brook 
10     189000     7500 Residential_Low_Density  Gilbert     
# ... with 2,683 more rows
…
