Übungsblatt 1
…
library(gapminder)

Nun haben wir Zugriff auf den Gapminder Datensatz. Dieser sieht wie folgt aus.

gapminder

# A tibble: 1,704 × 6
   country     continent  year lifeExp      pop gdpPercap
   <fct>       <fct>     <int>   <dbl>    <int>     <dbl>
 1 Afghanistan Asia       1952    28.8  8425333      779.
 2 Afghanistan Asia       1957    30.3  9240934      821.
 3 Afghanistan Asia       1962    32.0 10267083      853.
 4 Afghanistan Asia       1967    34.0 11537966      836.
 5 Afghanistan Asia       1972    36.1 13079460      740.
 6 Afghanistan Asia       1977    38.4 14880372      786.
 7 Afghanistan Asia       1982    39.9 12881816      978.
 8 Afghanistan Asia       1987    40.8 13867957      852.
 9 Afghanistan Asia       1992    41.7 16317921      649.
10 Afghanistan Asia       1997    41.8 22227415      635.
# … with 1,694 more rows
…
Wohlstand und Lebenserwartung

Hans Roslings 200 Countries, 200 Years, 4 Minutes ist mittlerweile ein Klassiker. Diesen Klassiker wollen wir hier mit unseren Datensatz in Teilen nachbauen. Schau dir dazu zunächst das Video an, damit du weißt, worum es geht.

Erstmal nur ein Jahr

Betrachten wir zunächst mal nur das Jahr 1952 in unserem Datensatz. Erstelle dazu eine Variable gapminder_1952, die nur die Daten dieses des Jahres 1952 enthält. Dieser Datensatz sollte so aussehen

gapminder_1952 <- gapminder |> 
  filter(year == 1952)

gapminder_1952

# A tibble: 142 × 6
   country     continent  year lifeExp      pop gdpPercap
   <fct>       <fct>     <int>   <dbl>    <int>     <dbl>
 1 Afghanistan Asia       1952    28.8  8425333      779.
 2 Albania     Europe     1952    55.2  1282697     1601.
 3 Algeria     Africa     1952    43.1  9279525     2449.
 4 Angola      Africa     1952    30.0  4232095     3521.
 5 Argentina   Americas   1952    62.5 17876956     5911.
 6 Australia   Oceania    1952    69.1  8691212    10040.
 7 Austria     Europe     1952    66.8  6927772     6137.
 8 Bahrain     Asia       1952    50.9   120447     9867.
 9 Bangladesh  Asia       1952    37.5 46886859      684.
10 Belgium     Europe     1952    68    8730405     8343.
# … with 132 more rows
…
Vergleich: 1952 bis 2007

Welche Länder haben ihre Lebenserwartung verschlechtert?

Finden wir nun heraus, ob manche Länder ihre Lebenserwartung verschlechtert haben. Dazu benötigen wir nur die Variablen country, year und lifeExp. Erstelle eine Variable comparison_data, der nur diese Spalten und nur die Jahre 1952 und 2007 enthält.

Der %in%-Operator kann dir dabei behilflich sein. Finde mit einer schnellen Internetrecherche raus, wie dieser Operator funktioniert. Dein Datensatz comparison_data sollte dann so aussehen.

comparison_data <- gapminder |> 
  select(country, year, lifeExp) |> 
  filter(year %in% c(1952, 2007))

comparison_data

# A tibble: 284 × 3
   country      year lifeExp
   <fct>       <int>   <dbl>
 1 Afghanistan  1952    28.8
 2 Afghanistan  2007    43.8
 3 Albania      1952    55.2
 4 Albania      2007    76.4
 5 Algeria      1952    43.1
 6 Algeria      2007    72.3
 7 Angola       1952    30.0
 8 Angola       2007    42.7
 9 Argentina    1952    62.5
10 Argentina    2007    75.3
# … with 274 more rows

Nun können wir den Datensatz ein wenig umsortieren. Dies geht mit der Funktion pivot_wider(). Im Prinzip brauchst du nicht zu verstehen, wie sie funktioniert. Du kannst einfach den folgenden Codeschnipsel übernehmen.

comparison_data_wider <- comparison_data |> 
  pivot_wider(
    names_from = year,
    values_from = lifeExp,
    names_prefix = 'lifeExp_'
  )
comparison_data_wider

# A tibble: 142 × 3
   country     lifeExp_1952 lifeExp_2007
   <fct>              <dbl>        <dbl>
 1 Afghanistan         28.8         43.8
 2 Albania             55.2         76.4
 3 Algeria             43.1         72.3
 4 Angola              30.0         42.7
 5 Argentina           62.5         75.3
 6 Australia           69.1         81.2
 7 Austria             66.8         79.8
 8 Bahrain             50.9         75.6
 9 Bangladesh          37.5         64.1
10 Belgium             68           79.4
# … with 132 more rows
…
Wie groß sind die Veränderungen?

Füge der Tabelle comparison_data_wider nun noch die Spalten change and change_result hinzu. Speichere die neue Tabelle in der Variable lifeexp_changes. Die Spalte change_result sollte den Eintrag "verbessert" enthalten, wenn die Lebenserwartung sich verbessert hat. Ansonsten enthält sie den Eintrag "verschlechtert". Die Funktion if_else() kann hier hilfreich sein.

lifeexp_changes <- comparison_data_wider |> 
  mutate(
    change = lifeExp_2007 - lifeExp_1952,
    change_result = if_else(change > 0, "verbessert", 'verschlechtert')
  )

lifeexp_changes

# A tibble: 142 × 5
   country     lifeExp_1952 lifeExp_2007 change change_result
   <fct>              <dbl>        <dbl>  <dbl> <chr>        
 1 Afghanistan         28.8         43.8   15.0 verbessert   
 2 Albania             55.2         76.4   21.2 verbessert   
 3 Algeria             43.1         72.3   29.2 verbessert   
 4 Angola              30.0         42.7   12.7 verbessert   
 5 Argentina           62.5         75.3   12.8 verbessert   
 6 Australia           69.1         81.2   12.1 verbessert   
 7 Austria             66.8         79.8   13.0 verbessert   
 8 Bahrain             50.9         75.6   24.7 verbessert   
 9 Bangladesh          37.5         64.1   26.6 verbessert   
10 Belgium             68           79.4   11.4 verbessert   
# … with 132 more rows
…
