Eine (sehr) kurze R Einführung
…
Alles ist ein Vektor

Sobald diese Befehle ausgeführt wurden, kannst du auf Datensätze aus diesen Paketen zugreifen. Dazu “führst” du den Namen aus. Dann erhältst du den folgenden Output.

penguins

# A tibble: 344 × 8
   species island    bill_length_mm bill_depth_mm flipper_…¹ body_…² sex    year
   <fct>   <fct>              <dbl>         <dbl>      <int>   <int> <fct> <int>
 1 Adelie  Torgersen           39.1          18.7        181    3750 male   2007
 2 Adelie  Torgersen           39.5          17.4        186    3800 fema…  2007
 3 Adelie  Torgersen           40.3          18          195    3250 fema…  2007
 4 Adelie  Torgersen           NA            NA           NA      NA <NA>   2007
 5 Adelie  Torgersen           36.7          19.3        193    3450 fema…  2007
 6 Adelie  Torgersen           39.3          20.6        190    3650 male   2007
 7 Adelie  Torgersen           38.9          17.8        181    3625 fema…  2007
 8 Adelie  Torgersen           39.2          19.6        195    4675 male   2007
 9 Adelie  Torgersen           34.1          18.1        193    3475 <NA>   2007
10 Adelie  Torgersen           42            20.2        190    4250 <NA>   2007
# … with 334 more rows, and abbreviated variable names ¹​flipper_length_mm,
#   ²​body_mass_g
…
Berechnete Größen visualisieren

Lasst uns nun unsere Penguine zählen. Schauen wir dazu doch noch einmal in unseren Datensatz.

penguins

# A tibble: 344 × 8
   species island    bill_length_mm bill_depth_mm flipper_…¹ body_…² sex    year
   <fct>   <fct>              <dbl>         <dbl>      <int>   <int> <fct> <int>
 1 Adelie  Torgersen           39.1          18.7        181    3750 male   2007
 2 Adelie  Torgersen           39.5          17.4        186    3800 fema…  2007
 3 Adelie  Torgersen           40.3          18          195    3250 fema…  2007
 4 Adelie  Torgersen           NA            NA           NA      NA <NA>   2007
 5 Adelie  Torgersen           36.7          19.3        193    3450 fema…  2007
 6 Adelie  Torgersen           39.3          20.6        190    3650 male   2007
 7 Adelie  Torgersen           38.9          17.8        181    3625 fema…  2007
 8 Adelie  Torgersen           39.2          19.6        195    4675 male   2007
 9 Adelie  Torgersen           34.1          18.1        193    3475 <NA>   2007
10 Adelie  Torgersen           42            20.2        190    4250 <NA>   2007
# … with 334 more rows, and abbreviated variable names ¹​flipper_length_mm,
#   ²​body_mass_g
…
Es wäre doch praktisch, wenn wir einfach die Beobachtungen mit NA s aussortieren könnten. Wir haben ja bereits gesehen, dass wir das mit Vektoren können:

some_penguin_bill_lengths <- penguins$bill_length_mm[seq(from = 4, to = 10, by = 2)]
some_penguin_bill_lengths 
## [1]   NA 39.3 39.2 42.0
some_penguin_bill_lengths[!is.na(some_penguin_bill_lengths)]
## [1] 39.3 39.2 42.0

Das gleiche geht mit unserer Tabelle auch. Dazu können wir die filter() Funktion benutzen. Diese Funktion benötigt als erstes Argument eine Tabelle (penguins in unserem Fall) und anschließend Filterbedingungen. Solche Filterbedingungen funktionieren genauso wie für Vektoren (siehe Abschnitt “Wahrheitsvektoren”).

filter(penguins, body_mass_g > 3500)

# A tibble: 264 × 8
   species island    bill_length_mm bill_depth_mm flipper_…¹ body_…² sex    year
   <fct>   <fct>              <dbl>         <dbl>      <int>   <int> <fct> <int>
 1 Adelie  Torgersen           39.1          18.7        181    3750 male   2007
 2 Adelie  Torgersen           39.5          17.4        186    3800 fema…  2007
 3 Adelie  Torgersen           39.3          20.6        190    3650 male   2007
 4 Adelie  Torgersen           38.9          17.8        181    3625 fema…  2007
 5 Adelie  Torgersen           39.2          19.6        195    4675 male   2007
 6 Adelie  Torgersen           42            20.2        190    4250 <NA>   2007
 7 Adelie  Torgersen           37.8          17.3        180    3700 <NA>   2007
 8 Adelie  Torgersen           38.6          21.2        191    3800 male   2007
 9 Adelie  Torgersen           34.6          21.1        198    4400 male   2007
10 Adelie  Torgersen           36.6          17.8        185    3700 fema…  2007
# … with 254 more rows, and abbreviated variable names ¹​flipper_length_mm,
#   ²​body_mass_g

filter(penguins, species == "Gentoo")

# A tibble: 124 × 8
   species island bill_length_mm bill_depth_mm flipper_len…¹ body_…² sex    year
   <fct>   <fct>           <dbl>         <dbl>         <int>   <int> <fct> <int>
 1 Gentoo  Biscoe           46.1          13.2           211    4500 fema…  2007
 2 Gentoo  Biscoe           50            16.3           230    5700 male   2007
 3 Gentoo  Biscoe           48.7          14.1           210    4450 fema…  2007
 4 Gentoo  Biscoe           50            15.2           218    5700 male   2007
 5 Gentoo  Biscoe           47.6          14.5           215    5400 male   2007
 6 Gentoo  Biscoe           46.5          13.5           210    4550 fema…  2007
 7 Gentoo  Biscoe           45.4          14.6           211    4800 fema…  2007
 8 Gentoo  Biscoe           46.7          15.3           219    5200 male   2007
 9 Gentoo  Biscoe           43.3          13.4           209    4400 fema…  2007
10 Gentoo  Biscoe           46.8          15.4           215    5150 male   2007
# … with 114 more rows, and abbreviated variable names ¹​flipper_length_mm,
#   ²​body_mass_g

filter(penguins, !is.na(sex))

# A tibble: 333 × 8
   species island    bill_length_mm bill_depth_mm flipper_…¹ body_…² sex    year
   <fct>   <fct>              <dbl>         <dbl>      <int>   <int> <fct> <int>
 1 Adelie  Torgersen           39.1          18.7        181    3750 male   2007
 2 Adelie  Torgersen           39.5          17.4        186    3800 fema…  2007
 3 Adelie  Torgersen           40.3          18          195    3250 fema…  2007
 4 Adelie  Torgersen           36.7          19.3        193    3450 fema…  2007
 5 Adelie  Torgersen           39.3          20.6        190    3650 male   2007
 6 Adelie  Torgersen           38.9          17.8        181    3625 fema…  2007
 7 Adelie  Torgersen           39.2          19.6        195    4675 male   2007
 8 Adelie  Torgersen           41.1          17.6        182    3200 fema…  2007
 9 Adelie  Torgersen           38.6          21.2        191    3800 male   2007
10 Adelie  Torgersen           34.6          21.1        198    4400 male   2007
# … with 323 more rows, and abbreviated variable names ¹​flipper_length_mm,
#   ²​body_mass_g
…
Ihr müsst die Pipe auch nicht händisch tippen. Mit der Kombination strg + shift + M wirft RStudio die Pipe für euch. Bei euch könnte die Pipe allerdings dann wie %>% aussehen. Das ist die “alte” Pipe. Ihr könnt in RStudio unter Tools > Global Options > Code > Use native pipe operator die “neue” Pipe verwenden.

Auswählen von Spalten mit select()

Für gewöhnlich will man nur einen Teil der Spalten eines Datensatzes angucken. Mit der select()-Funktion kann man sich leicht auf die relevanten Spalten beschränken. Auch die select()-Funktion erwartet an erster Stelle eine Tabelle und ist daher sehr “pipe-freundlich”.

penguins |> 
  select(sex, flipper_length_mm, bill_length_mm, body_mass_g)

# A tibble: 344 × 4
   sex    flipper_length_mm bill_length_mm body_mass_g
   <fct>              <int>          <dbl>       <int>
 1 male                 181           39.1        3750
 2 female               186           39.5        3800
 3 female               195           40.3        3250
 4 <NA>                  NA           NA            NA
 5 female               193           36.7        3450
 6 male                 190           39.3        3650
 7 female               181           38.9        3625
 8 male                 195           39.2        4675
 9 <NA>                 193           34.1        3475
10 <NA>                 190           42          4250
# … with 334 more rows

Wie wir nun wissen, können wir diese Tabelle auch gleich um die fehlenden Werte bereinigen. Am besten speichern wir diese Tabelle auch in eine Variable ab. Dann können wir mit dieser neuen Tabelle in anderen Berechnungen weiterarbeiten.

selected_penguins <- penguins |> 
  select(sex, flipper_length_mm, bill_length_mm, body_mass_g) |> 
  filter(!is.na(sex))
selected_penguins

# A tibble: 333 × 4
   sex    flipper_length_mm bill_length_mm body_mass_g
   <fct>              <int>          <dbl>       <int>
 1 male                 181           39.1        3750
 2 female               186           39.5        3800
 3 female               195           40.3        3250
 4 female               193           36.7        3450
 5 male                 190           39.3        3650
 6 female               181           38.9        3625
 7 male                 195           39.2        4675
 8 female               182           41.1        3200
 9 male                 191           38.6        3800
10 male                 198           34.6        4400
# … with 323 more rows
…
Das war jetzt zwar einfach, aber der Output lässt zu Wünschen übrig. Außerdem ist es dezent nervig, dass ich mehrfach selected_penguins$ tippen musste. Hätten wir eine komplizierte Rechnung durchgeführt, hätte ich das vermutlich noch öfter tippen müssen.

Aber nicht mit mir! Mit mutate() kann man sich viel Tipparbeit sparen und hat auch gleich wieder einen Tabellenoutput. Außerdem kann man so gleich mehrere Berechnungen in einem Abwasch machen.

mutierte_pinguine <- selected_penguins |> 
  mutate(
    ratio = flipper_length_mm / bill_length_mm,
    ratio_groeßer_5 = (ratio > 5)
  )
mutierte_pinguine

# A tibble: 333 × 6
   sex    flipper_length_mm bill_length_mm body_mass_g ratio ratio_groeßer_5
   <fct>              <int>          <dbl>       <int> <dbl> <lgl>          
 1 male                 181           39.1        3750  4.63 FALSE          
 2 female               186           39.5        3800  4.71 FALSE          
 3 female               195           40.3        3250  4.84 FALSE          
 4 female               193           36.7        3450  5.26 TRUE           
 5 male                 190           39.3        3650  4.83 FALSE          
 6 female               181           38.9        3625  4.65 FALSE          
 7 male                 195           39.2        4675  4.97 FALSE          
 8 female               182           41.1        3200  4.43 FALSE          
 9 male                 191           38.6        3800  4.95 FALSE          
10 male                 198           34.6        4400  5.72 TRUE           
# … with 323 more rows
…
