Übungsblatt 2
…
Hier sehen wir also, dass sich die relative Gewinnanzahl mit zunehmender Spielanzahl an die theoretische Wahrscheinlichkeit annähert.

Um diese Grafik zu erstellen, wollen wir wie folgt vorgehen. Zunächst sammeln wir unseren bisherigen erstellten Vektoren in einem tibble.

win_data <- tibble(
  N = 1:N,
  game_one = game_one_wins,
  game_two = game_two_wins
)
win_data

# A tibble: 1,000 × 3
       N game_one game_two
   <int> <lgl>    <lgl>   
 1     1 TRUE     FALSE   
 2     2 TRUE     FALSE   
 3     3 TRUE     FALSE   
 4     4 TRUE     TRUE    
 5     5 FALSE    TRUE    
 6     6 FALSE    FALSE   
 7     7 TRUE     TRUE    
 8     8 TRUE     TRUE    
 9     9 TRUE     TRUE    
10    10 TRUE     TRUE    
# … with 990 more rows
…
quota_data <- tibble(
  N = 1:N,
  game_one = game_one_quota,
  game_two = game_two_quota
) |> 
  pivot_longer(
    cols = -N,
    names_to = 'game',
    names_prefix = 'game_',
    values_to = 'quota'
  )
quota_data

# A tibble: 2,000 × 3
       N game  quota
   <int> <chr> <dbl>
 1     1 one    1   
 2     1 two    0   
 3     2 one    1   
 4     2 two    0   
 5     3 one    1   
 6     3 two    0   
 7     4 one    1   
 8     4 two    0.25
 9     5 one    0.8 
10     5 two    0.4 
# … with 1,990 more rows
…
