Simulation study
…
if (params$infinite_variance) {
  set.seed(253245)
  mu <- runif(100, min = 0, max = 1)
  
  time_series_dat <- time_series_dat %>% 
    mutate(
      # Subordinate
      ts = map(ts, ~exp(.^2 / 2)),
      # Convert to Binomial process via discrete measure mu
      ts = map(ts, ~convert_to_bernoulli(., mu = mu))
    )
}
print(time_series_dat, n = 2)

# A tibble: 12,000 × 3
  simu_id     H ts         
    <int> <dbl> <list>     
1       1   0.6 <dbl [500]>
2       2   0.6 <dbl [500]>
# … with 11,998 more rows
Compute the periodograms and variances

vars_and_periodograms <- time_series_dat %>% 
  mutate(
    variance = map(ts, estimate_variance_C, kMax =  min(TMax / 3, kMax_cutoff)),
    periodogram = map(ts, estimate_periodogram)
  )
# Save as intermediate result
write_rds(
  vars_and_periodograms, 
  glue::glue('computed_data/{variance_tag}_vars_and_periodograms_{TMax}.rds')
)
print(vars_and_periodograms, n = 2)

# A tibble: 12,000 × 5
  simu_id     H ts          variance    periodogram
    <int> <dbl> <list>      <list>      <list>     
1       1   0.6 <dbl [500]> <dbl [150]> <dbl [500]>
2       2   0.6 <dbl [500]> <dbl [150]> <dbl [500]>
# … with 11,998 more rows
…
